Tidyverse
…
```
## [1] "2022-01-31"
```

2) We can create a date/time from individual date-time components as we can see in the flight dataset where we have to usethe make_date and make_datetime to create a datetime.
---

```r
flights %>% 
select(year,month,day,hour,minute) %>% 
mutate(Departure=make_datetime(year,month,day,hour,minute))
```

```
## # A tibble: 336,776 x 6
##     year month   day  hour minute Departure          
##    <int> <int> <int> <dbl>  <dbl> <dttm>             
##  1  2013     1     1     5     15 2013-01-01 05:15:00
##  2  2013     1     1     5     29 2013-01-01 05:29:00
##  3  2013     1     1     5     40 2013-01-01 05:40:00
##  4  2013     1     1     5     45 2013-01-01 05:45:00
##  5  2013     1     1     6      0 2013-01-01 06:00:00
##  6  2013     1     1     5     58 2013-01-01 05:58:00
##  7  2013     1     1     6      0 2013-01-01 06:00:00
##  8  2013     1     1     6      0 2013-01-01 06:00:00
##  9  2013     1     1     6      0 2013-01-01 06:00:00
## 10  2013     1     1     6      0 2013-01-01 06:00:00
## # ... with 336,766 more rows
```
…
